<channels>
<channel>
<name>[B][COLOR gold]###[/COLOR][COLOR lime]###[/COLOR][COLOR crimson]###[/COLOR] [COLOR white][/COLOR]BATMAN - FILMES [COLOR crimson]###[/COLOR][COLOR lime]###[/COLOR][COLOR gold]###[/COLOR][/B]</name>
<thumbnail>https://media.fstatic.com/pj6AaYzNoqk5PmXtaCoxmSijWNE=/290x478/smart/media/movies/covers/2019/05/batman1989-187616_x9aoGlA.jpg</thumbnail>
<externallink>https://gitlab.com/witesi/Gaviaoplay/-/raw/main/BATMAN%20FILMES%20.txt/externallink>
<fanart>https://f001.backblazeb2.com/file/papocine/2014/05/saga-batman-papo-de-cinema-600x342.jpg</fanart>
<info>[B][COLOR yellow]COLETANEA DOS FILMES  DA SAGA BATMAN[/COLOR][/B]</info></channels></channel>
#######################################################################################################################################
<channels>
<channel>
<name>[B][COLOR gold]###[/COLOR][COLOR lime]###[/COLOR][COLOR crimson]###[/COLOR] [COLOR white]BATMAN - ANIMAÇÃO[/COLOR] [COLOR crimson]###[/COLOR][COLOR lime]###[/COLOR][COLOR gold]###[/COLOR][/B]</name>
<thumbnail>https://media.fstatic.com/FD8SCy-2FBJmzGL024glQXJQ9NQ=/290x478/smart/media/movies/covers/2017/05/bat.jpg</thumbnail>
<externallink>https://gitlab.com/witesi/Gaviaoplay/-/raw/main/BATMAN%20ANIMA%C3%87%C3%83O.txt</externallink>
<fanart>https://f001.backblazeb2.com/file/papocine/2016/07/20160729-top-10-animacoes-batman-home-1-600x328.jpg</fanart>
<info>[B][COLOR yellow]COLETANEA DE ANIMES  DA SAGA BATMAN[/COLOR][/B]</info></channels></channel>
#######################################################################################################################################
